%YAML 1.1
%TAG !u! tag:unity3d.com,2011:
--- !u!114 &11400000
MonoBehaviour:
  m_ObjectHideFlags: 0
  m_CorrespondingSourceObject: {fileID: 0}
  m_PrefabInstance: {fileID: 0}
  m_PrefabAsset: {fileID: 0}
  m_GameObject: {fileID: 0}
  m_Enabled: 1
  m_EditorHideFlags: 0
  m_Script: {fileID: 11500000, guid: 4f98ccf1666e9754594461293415da12, type: 3}
  m_Name: WeaponData 16
  m_EditorClassIdentifier: 
  weaponObject: {fileID: 8940455384478473097, guid: 61876ed508ce5754a84b723c533f002d, type: 3}
  weaponName: Gun16
  weaponAnimationString: Shooting3
  weaponImage: {fileID: 21300000, guid: 64a9af1c3431e0a45b2c7dfd4aeb1761, type: 3}
  weaponBullet: {fileID: 5087340472530307662, guid: 9f32e0850be384e4288cbc319f30e0e0, type: 3}
  weaponBulletDamage: 1
  weaponBulletMovementSpeed: 20
